; Generated by Rhc.NET pre-alpha
source_filename = "00_Tests/math-test.rh"
target triple = "x86_64-pc-linux-gnu"
@.str.0 = private unnamed_addr constant [11 x i8] c"\25\64\0A\25\64\0A\25\6C\67\0A\00", align 1
declare i64 @putchar(i8 noundef %__0) #1
declare i64 @wputchar(i32 noundef %__0) #1
declare i32 @puts(ptr noundef %__0) #1
declare i32 @printf(ptr noundef %__0) #1
define dso_local i32 @main(i32 noundef %__0,ptr noundef %__1) #0
{
%argc = alloca i32, align 4 ; 2
store i32 %__0, ptr %argc, align 4
%argv = alloca ptr, align 8 ; 3
store ptr %__1, ptr %argv, align 8
%x = alloca i32, align 4
%__4 = sdiv i32 7, 4
%__5 = mul i32 %__4, 5
%__6 = add i32 %__5, 3
%__7 = sub i32 %__6, 2
store i32 %__7, ptr %x, align 4
%z = alloca i32, align 4
%__8 = load i32, ptr %x, align 4
%__9 = add i32 %__8, 4
store i32 %__9, ptr %z, align 4
%y = alloca double, align 8
%__10 = fmul double 0x401C000000000000, 0x402299999999999A
%__11 = fadd double %__10, 0x4021333333333333
%__12 = fmul double 0x4010CCCCCCCCCCCD, 0x400F333333333333%__13 = fsub double %__11, %__12
store double %__13, ptr %y, align 8
%__14 = load i32, ptr %x, align 4
%__15 = load i32, ptr %z, align 4
%__16 = load double, ptr %y, align 8
call i32 @printf(ptr noundef @.str.0,i32 %__14,i32 %__15,double %__16)
ret i32 0
}