<?xml version="1.0" encoding="UTF-8" standalone="no"?>
<!-- Created with Inkscape (http://www.inkscape.org/) -->

<svg
   width="278.16415mm"
   height="170.52988mm"
   viewBox="0 0 278.16415 170.52989"
   version="1.1"
   id="svg5"
   inkscape:export-filename="RhLogoVersion1.svg"
   inkscape:export-xdpi="96"
   inkscape:export-ydpi="96"
   xmlns:inkscape="http://www.inkscape.org/namespaces/inkscape"
   xmlns:sodipodi="http://sodipodi.sourceforge.net/DTD/sodipodi-0.dtd"
   xmlns:xlink="http://www.w3.org/1999/xlink"
   xmlns="http://www.w3.org/2000/svg"
   xmlns:svg="http://www.w3.org/2000/svg">
  <sodipodi:namedview
     id="namedview7"
     pagecolor="#ffffff"
     bordercolor="#666666"
     borderopacity="1.0"
     inkscape:showpageshadow="2"
     inkscape:pageopacity="0.0"
     inkscape:pagecheckerboard="0"
     inkscape:deskcolor="#d1d1d1"
     inkscape:document-units="mm"
     showgrid="false" />
  <defs
     id="defs2">
    <linearGradient
       inkscape:collect="always"
       id="linearGradient710">
      <stop
         style="stop-color:#333333;stop-opacity:1"
         offset="0"
         id="stop706" />
      <stop
         style="stop-color:#cccccc;stop-opacity:1"
         offset="1"
         id="stop708" />
    </linearGradient>
    <rect
       x="48.669468"
       y="187.91841"
       width="251.24323"
       height="237.01485"
       id="rect119" />
    <linearGradient
       inkscape:collect="always"
       xlink:href="#linearGradient710"
       id="linearGradient712"
       x1="26.527225"
       y1="339.86804"
       x2="368.96762"
       y2="217.57014"
       gradientUnits="userSpaceOnUse" />
  </defs>
  <g
     inkscape:label="Layer 1"
     inkscape:groupmode="layer"
     id="layer1"
     transform="translate(32.744653,-53.135325)">
    <rect
       style="fill:#1a1a1a;stroke-width:0.264583"
       id="rect499"
       width="279.1705"
       height="172.53685"
       x="-33.257374"
       y="51.571091" />
    <text
       xml:space="preserve"
       transform="matrix(0.88091528,0,0,0.88091528,-46.4546,-120.55074)"
       id="text117"
       style="font-style:normal;font-weight:normal;font-size:40px;line-height:1.25;font-family:sans-serif;white-space:pre;shape-inside:url(#rect119);display:inline;fill:url(#linearGradient712);fill-opacity:1;stroke:none"><tspan
         x="48.669922"
         y="360.86282"
         id="tspan1597"><tspan
           style="font-size:192px;font-family:Arial;-inkscape-font-specification:'Arial, Normal'"
           id="tspan1595">Rh</tspan></tspan></text>
  </g>
</svg>
