@.str.0 = private unnamed_addr constant [14 x i8] c"\48\65\6C\6C\6F\2C\20\77\6F\72\6C\64\21\0A", align 1
@.str.1 = private unnamed_addr constant [14 x i8] c"\41\41\41\41\41\41\41\41\41\41\41\41\41\41", align 1
declare i64 @putchar(i8 noundef) #1
declare i64 @wputchar(i32 noundef) #1
define dso_local i64 @TestFunction() #0
{
    ret i64 4
}
define dso_local void @Write(i8* noundef) #0
{
    ret void
}
define dso_local i32 @main() #0
{
    %i = alloca i32, align 4
    store i32 400, i32* %i, align 4
    %c = alloca i32, align 4
    store i32 -1416829184, i32* %c, align 4
    %a = alloca i16, align 2
    store i16 5, i16* %a, align 2
    %x = alloca float, align 4
    store float 43.0, float* %x, align 4
    %foo = alloca i8, align 1
    store i8 1, i8* %foo, align 1
    %str = getelementptr [14 x i8], [14 x i8]* @.str.0, i64 0, i64 0
    %str2 = getelementptr [14 x i8], [14 x i8]* @.str.0, i64 0, i64 0
    ret i32 0
    
    
    {
	ret i32 0
    }
}
