Read 229 tokens.
2:1 noinclude
2:11 StdLib
2:17 ;
4:1 struct
4:8 string
5:1 {
6:5 char
6:10 contents
6:18 [
6:19 ]
6:20 ;
7:5 int64
7:11 length
7:17 ;
9:1 }
11:1 namespace
11:11 StdLib
12:1 {
13:5 bool
13:10 IsWhitespace
13:22 (
13:23 char
13:28 c
13:29 )
14:5 {
15:9 return
15:16 (
15:17 c
15:19 ==
15:21 ' '
15:26 ||
15:29 c
15:31 ==
15:33 '\n'
15:39 ||
15:42 c
15:44 ==
15:46 '\r'
15:52 ||
15:55 c
15:57 ==
15:59 '\t'
15:65 ||
15:68 c
15:70 ==
15:72 '\v'
15:78 ||
15:81 c
15:83 ==
15:85 '\f'
15:90 )
15:91 ;
16:5 }
18:5 bool
18:10 IsLower
18:17 (
18:18 char
18:23 c
18:24 )
19:5 {
24:9 return
24:15 'a'
24:20 <=
24:23 c
24:25 <=
24:27 'z'
24:31 ;
25:5 }
27:5 bool
27:10 IsUpper
27:17 (
27:18 char
27:23 c
27:24 )
28:5 {
29:9 return
29:15 'A'
29:20 <=
29:23 c
29:25 <=
29:27 'Z'
29:31 ;
30:5 }
32:5 bool
32:10 IsDigit
32:17 (
32:18 char
32:23 c
32:24 )
33:5 {
34:9 return
34:15 '0'
34:20 <=
34:23 c
34:25 <=
34:27 '9'
34:31 ;
35:5 }
37:5 bool
37:10 IsHexDigit
37:20 (
37:21 char
37:26 c
37:27 )
38:5 {
39:9 return
39:16 (
39:16 '0'
39:21 <=
39:24 c
39:26 <=
39:28 '9'
39:32 )
39:34 ||
39:37 (
39:37 'A'
39:42 <=
39:45 c
39:47 <=
39:49 'F'
39:53 )
39:55 ||
39:58 (
39:58 'a'
39:63 <=
39:66 c
39:68 <=
39:70 'f'
39:74 )
39:75 ;
40:5 }
42:5 string
42:12 ToLower
42:19 (
42:20 string
42:27 s
42:28 )
43:5 {
44:9 for
44:13 (
44:14 int64
44:20 i
44:22 =
44:24 0
44:25 ;
44:27 i
44:29 <
44:31 s
44:32 .
44:33 Length
44:39 ;
44:41 i
44:42 ++
44:44 )
45:9 {
46:13 if
46:16 (
46:17 IsUpper
46:24 (
46:25 s
46:26 [
46:27 i
46:28 ]
46:29 )
46:30 )
47:17 s
47:18 [
47:19 i
47:20 ]
47:22 -=
47:25 32
47:27 ;
48:9 }
49:5 }
51:5 string
51:12 ToUpper
51:19 (
51:20 string
51:27 s
51:28 )
52:5 {
53:9 for
53:13 (
53:14 int64
53:20 i
53:22 =
53:24 0
53:25 ;
53:27 i
53:29 <
53:31 s
53:32 .
53:33 Length
53:39 ;
53:41 i
53:42 ++
53:44 )
54:9 {
55:13 if
55:16 (
55:17 IsLower
55:24 (
55:25 s
55:26 [
55:27 i
55:28 ]
55:29 )
55:30 )
56:17 s
56:18 [
56:19 i
56:20 ]
56:22 +=
56:25 32
56:27 ;
57:9 }
58:5 }
60:5 string
60:12 StrCat
60:18 (
60:19 string
60:26 s1
60:28 ,
60:30 string
60:37 s2
60:39 )
61:5 {
63:5 }
83:1 }
